\relax 
\providecommand \oddpage@label [2]{}
\oddpage@label{1}{1}
\pgfsyspdfmark {pgfid1}{9782558}{43234099}
\@writefile{toc}{\contentsline {section}{\numberline {1}Instructions}{1}\protected@file@percent }
\@writefile{toc}{\contentsline {subsection}{\numberline {1.1}Running the search engine using windows}{1}\protected@file@percent }
\@writefile{toc}{\contentsline {subsection}{\numberline {1.2}Running the search engine using Linux}{2}\protected@file@percent }
\@writefile{toc}{\contentsline {subsubsection}{\numberline {1.2.1}Elasticsearch set up}{2}\protected@file@percent }
\@writefile{toc}{\contentsline {subsubsection}{\numberline {1.2.2}Accessing search engine on linux}{3}\protected@file@percent }
\@writefile{toc}{\contentsline {subsubsection}{\numberline {1.2.3}Extra docker information}{3}\protected@file@percent }
\@writefile{toc}{\contentsline {subsection}{\numberline {1.3}Using security model}{4}\protected@file@percent }
\@writefile{toc}{\contentsline {section}{\numberline {2}Main user types}{5}\protected@file@percent }
\newlabel{UserTypes}{{2}{5}}
\@writefile{toc}{\contentsline {subsection}{\numberline {2.1}Individual Customer}{5}\protected@file@percent }
\@writefile{toc}{\contentsline {subsection}{\numberline {2.2}Workplace}{5}\protected@file@percent }
\@writefile{toc}{\contentsline {subsection}{\numberline {2.3}Bank}{5}\protected@file@percent }
\@writefile{toc}{\contentsline {section}{\numberline {3}Data Model}{6}\protected@file@percent }
\newlabel{model}{{3}{6}}
\@writefile{toc}{\contentsline {section}{\numberline {4}Generation of data}{8}\protected@file@percent }
\newlabel{generation}{{4}{8}}
\@writefile{toc}{\contentsline {section}{\numberline {5}Brief Discussion of technologies chosen}{9}\protected@file@percent }
\newlabel{Implementation}{{5}{9}}
\@writefile{toc}{\contentsline {subsection}{\numberline {5.1}Elasticsearch}{9}\protected@file@percent }
\@writefile{toc}{\contentsline {subsection}{\numberline {5.2}Django/python/sql}{9}\protected@file@percent }
\@writefile{toc}{\contentsline {subsection}{\numberline {5.3}VUE}{9}\protected@file@percent }
\@writefile{toc}{\contentsline {section}{\numberline {6}User Interface}{10}\protected@file@percent }
\newlabel{UI}{{6}{10}}
\@writefile{toc}{\contentsline {section}{\numberline {7}Access control}{15}\protected@file@percent }
\newlabel{access}{{7}{15}}
\@writefile{toc}{\contentsline {subsection}{\numberline {7.1}Django Access Control}{15}\protected@file@percent }
\@writefile{toc}{\contentsline {subsection}{\numberline {7.2}Elastic Search Permissions}{15}\protected@file@percent }
\@writefile{toc}{\contentsline {section}{\numberline {8}Project Reflection}{16}\protected@file@percent }
\@writefile{toc}{\contentsline {section}{\numberline {9}Conclusions}{16}\protected@file@percent }
